// Jest Snapshot v1, https://goo.gl/fbAQLP

exports[`default layout renders sidebar properly 1`] = `
<nav
  class="nav-sidebar"
>
  <div
    class="nav-sidebar__header"
  >
    <nuxt-link-stub
      class="nav-sidebar__header-anchor p-a-5"
      to="/"
    >
      <svg
        class="tanuki-logo"
        height="36"
        viewBox="0 0 376 342"
        xmlns="http://www.w3.org/2000/svg"
      >
        <g
          fill="none"
          fill-rule="evenodd"
        >
          <path
            class="tanuki-shape tanuki-left-ear"
            d="M185.398 341.13l68.013-209.322H117.39L185.4 341.13z"
            fill="#E24329"
          />
           
          <path
            class="tanuki-shape tanuki-left-eye"
            d="M185.398 341.13l-68.013-209.322h-95.32L185.4 341.128z"
            fill="#FC6D26"
          />
           
          <path
            class="tanuki-shape tanuki-left-cheek"
            d="M22.066 131.808l-20.67 63.61c-1.884 5.803.18 12.16 5.117 15.744L185.398 341.13 22.066 131.807z"
            fill="#FCA326"
          />
           
          <path
            class="tanuki-shape tanuki-nose"
            d="M22.066 131.808h95.32L76.42 5.735c-2.107-6.487-11.284-6.487-13.39 0L22.065 131.808z"
            fill="#E24329"
          />
           
          <path
            class="tanuki-shape tanuki-right-eye"
            d="M185.398 341.13l68.013-209.322h95.32L185.4 341.128z"
            fill="#FC6D26"
          />
           
          <path
            class="tanuki-shape tanuki-right-cheek"
            d="M348.73 131.808l20.67 63.61c1.884 5.803-.18 12.16-5.117 15.744L185.398 341.13 348.73 131.807z"
            fill="#FCA326"
          />
           
          <path
            class="tanuki-shape tanuki-right-ear"
            d="M348.73 131.808h-95.32L294.376 5.735c2.108-6.487 11.285-6.487 13.392 0l40.963 126.073z"
            fill="#E24329"
          />
        </g>
      </svg>
       
      <span
        class="m-l-4"
      >
        GitLab Design System
      </span>
    </nuxt-link-stub>
  </div>
   
  <client-only-stub>
    <search-stub />
  </client-only-stub>
   
  <div
    class="nav-sidebar__body m-b-3"
  >
    <ul
      class="nav-sidebar__section"
    >
      <li>
        <span
          class="nav-sidebar__section-title"
        >
          Brand
        </span>
      </li>
       
      <li>
        <nuxt-link-stub
          class="nav-sidebar__section-items-anchor tree-indent-1"
          role="menuitem"
          to="/brand/basics"
        >
          Basics
        </nuxt-link-stub>
      </li>
      <li>
        <nuxt-link-stub
          class="nav-sidebar__section-items-anchor tree-indent-1"
          role="menuitem"
          to="/brand/resources"
        >
          Resources
        </nuxt-link-stub>
      </li>
    </ul>
    <ul
      class="nav-sidebar__section"
    >
      <li>
        <span
          class="nav-sidebar__section-title"
        >
          Product
        </span>
      </li>
       
      <li
        class="nav-sidebar__section"
      >
        <a
          aria-haspopup="true"
          class="nav-sidebar__section-toggle gl-display-block tree-indent-1"
          href="#"
          role="menuitem"
        >
          Get started
        </a>
         
        <!---->
      </li>
      <li
        class="nav-sidebar__section"
      >
        <a
          aria-haspopup="true"
          class="nav-sidebar__section-toggle gl-display-block tree-indent-1"
          href="#"
          role="menuitem"
        >
          Foundations
        </a>
         
        <!---->
      </li>
      <li
        class="nav-sidebar__section"
      >
        <a
          aria-haspopup="true"
          class="nav-sidebar__section-toggle gl-display-block tree-indent-1"
          href="#"
          role="menuitem"
        >
          Layout
        </a>
         
        <!---->
      </li>
      <li
        class="nav-sidebar__section"
      >
        <a
          aria-haspopup="true"
          class="nav-sidebar__section-toggle gl-display-block tree-indent-1"
          href="#"
          role="menuitem"
        >
          Components
        </a>
         
        <!---->
      </li>
      <li
        class="nav-sidebar__section"
      >
        <a
          aria-haspopup="true"
          class="nav-sidebar__section-toggle gl-display-block tree-indent-1"
          href="#"
          role="menuitem"
        >
          Data visualization
        </a>
         
        <!---->
      </li>
      <li
        class="nav-sidebar__section"
      >
        <a
          aria-haspopup="true"
          class="nav-sidebar__section-toggle gl-display-block tree-indent-1"
          href="#"
          role="menuitem"
        >
          Regions
        </a>
         
        <!---->
      </li>
      <li
        class="nav-sidebar__section"
      >
        <a
          aria-haspopup="true"
          class="nav-sidebar__section-toggle gl-display-block tree-indent-1"
          href="#"
          role="menuitem"
        >
          Objects
        </a>
         
        <!---->
      </li>
      <li
        class="nav-sidebar__section"
      >
        <a
          aria-haspopup="true"
          class="nav-sidebar__section-toggle gl-display-block tree-indent-1"
          href="#"
          role="menuitem"
        >
          Content
        </a>
         
        <!---->
      </li>
      <li
        class="nav-sidebar__section"
      >
        <a
          aria-haspopup="true"
          class="nav-sidebar__section-toggle gl-display-block tree-indent-1"
          href="#"
          role="menuitem"
        >
          Usability
        </a>
         
        <!---->
      </li>
      <li>
        <nuxt-link-stub
          class="nav-sidebar__section-items-anchor tree-indent-1"
          role="menuitem"
          to="/resources/design-resources"
        >
          Design resources
        </nuxt-link-stub>
      </li>
    </ul>
    <ul
      class="nav-sidebar__section"
    >
      <li>
        <span
          class="nav-sidebar__section-title"
        >
          Research
        </span>
      </li>
       
      <li>
        <nuxt-link-stub
          class="nav-sidebar__section-items-anchor tree-indent-1"
          role="menuitem"
          to="/research/get-started"
        >
          Get started
        </nuxt-link-stub>
      </li>
      <li>
        <a
          class="nav-sidebar__section-items-anchor tree-indent-1"
          href="https://about.gitlab.com/community/gitlab-first-look/"
          rel="noopener"
          target="_blank"
        >
          First look
        </a>
      </li>
      <li>
        <a
          class="nav-sidebar__section-items-anchor tree-indent-1"
          href="https://about.gitlab.com/handbook/marketing/strategic-marketing/roles-personas/"
          rel="noopener"
          target="_blank"
        >
          Personas
        </a>
      </li>
    </ul>
    <ul
      class="nav-sidebar__section"
    >
      <li>
        <span
          class="nav-sidebar__section-title"
        >
          Accessibility
        </span>
      </li>
       
      <li>
        <nuxt-link-stub
          class="nav-sidebar__section-items-anchor tree-indent-1"
          role="menuitem"
          to="/accessibility/a11y"
        >
          Statement of compliance
        </nuxt-link-stub>
      </li>
      <li>
        <nuxt-link-stub
          class="nav-sidebar__section-items-anchor tree-indent-1"
          role="menuitem"
          to="/accessibility/best-practices"
        >
          Best practices
        </nuxt-link-stub>
      </li>
      <li>
        <nuxt-link-stub
          class="nav-sidebar__section-items-anchor tree-indent-1"
          role="menuitem"
          to="/accessibility/vpat"
        >
          GitLab Accessibility Conformance Report
        </nuxt-link-stub>
      </li>
      <li
        class="nav-sidebar__section"
      >
        <a
          aria-haspopup="true"
          class="nav-sidebar__section-toggle gl-display-block tree-indent-1"
          href="#"
          role="menuitem"
        >
          Audit guides
        </a>
         
        <!---->
      </li>
    </ul>
    <ul
      class="nav-sidebar__section"
    >
      <li>
        <span
          class="nav-sidebar__section-title"
        >
          Contribute
        </span>
      </li>
       
      <li>
        <nuxt-link-stub
          class="nav-sidebar__section-items-anchor tree-indent-1"
          role="menuitem"
          to="/contribute/get-started"
        >
          Get started
        </nuxt-link-stub>
      </li>
      <li>
        <nuxt-link-stub
          class="nav-sidebar__section-items-anchor tree-indent-1"
          role="menuitem"
          to="/contribute/lifecycle"
        >
          Component lifecycle
        </nuxt-link-stub>
      </li>
    </ul>
  </div>
</nav>
`;
